%YAML 1.1
%TAG !u! tag:unity3d.com,2011:
--- !u!1045 &1
EditorBuildSettings:
  m_ObjectHideFlags: 0
  serializedVersion: 2
  m_Scenes:
  - enabled: 1
    path: Assets/Scenes/SceneMainMenu.unity
    guid: 7ed0d4e5ceb45064098a8a7ee6ed822e
  - enabled: 1
    path: Assets/Scenes/SceneOptions.unity
    guid: da8ee0c9f0c9b9e4381b17dbafe0f514
  - enabled: 1
    path: Assets/Scenes/Outside.unity
    guid: 05e86f126b536bd46a9d5d1400ae1f65
  - enabled: 1
    path: Assets/Scenes/InsideDone.unity
    guid: 7856c37b0d7791e45b123cad7892a88d
  - enabled: 1
    path: Assets/Scenes/Level2.unity
    guid: fc8d0c18896893f438e664edf66d4b8d
  - enabled: 1
    path: Assets/Scenes/Inside.unity
    guid: bb0f40bcb7447334e958df7600d75d58
  - enabled: 1
    path: Assets/Scenes/Level3(UEA).unity
    guid: 84babbe2474e151429ae3fbcbd65ce53
  - enabled: 1
    path: Assets/Scenes/Ending.unity
    guid: 01ed58695e9fb0f4286f0ef51c8bb825
  m_configObjects: {}
